{
    "key": "group_56b176d1cbaff",
    "title": "Inpection Reports File",
    "fields": [
        {
            "key": "field_56b176e0160e0",
            "label": "Files",
            "name": "files",
            "type": "repeater",
            "instructions": "",
            "required": 0,
            "conditional_logic": 0,
            "wrapper": {
                "width": "",
                "class": "",
                "id": ""
            },
            "collapsed": "",
            "min": "",
            "max": "",
            "layout": "table",
            "button_label": "Add More File",
            "sub_fields": [
                {
                    "key": "field_56c6c1287f76d",
                    "label": "Title",
                    "name": "title",
                    "type": "text",
                    "instructions": "",
                    "required": 0,
                    "conditional_logic": 0,
                    "wrapper": {
                        "width": "",
                        "class": "",
                        "id": ""
                    },
                    "default_value": "",
                    "placeholder": "",
                    "prepend": "",
                    "append": "",
                    "maxlength": "",
                    "readonly": 0,
                    "disabled": 0
                },
                {
                    "key": "field_56c6c0aa9bda1",
                    "label": "File",
                    "name": "file",
                    "type": "file",
                    "instructions": "",
                    "required": 0,
                    "conditional_logic": 0,
                    "wrapper": {
                        "width": "",
                        "class": "",
                        "id": ""
                    },
                    "return_format": "url",
                    "library": "all",
                    "min_size": "",
                    "max_size": "",
                    "mime_types": ""
                }
            ]
        },
        {
            "key": "field_56c6a27ada303",
            "label": "Role",
            "name": "role",
            "type": "radio",
            "instructions": "",
            "required": 1,
            "conditional_logic": 0,
            "wrapper": {
                "width": "",
                "class": "",
                "id": ""
            },
            "choices": {
                "all": "All",
                "specific-roles": "Specific roles"
            },
            "other_choice": 0,
            "save_other_choice": 0,
            "default_value": "",
            "layout": "horizontal"
        },
        {
            "key": "field_56c6835dad9f4",
            "label": "Specific Roles",
            "name": "roles",
            "type": "role_selector",
            "instructions": "Choose roles allow to download file",
            "required": 0,
            "conditional_logic": [
                [
                    {
                        "field": "field_56c6a27ada303",
                        "operator": "==",
                        "value": "specific-roles"
                    }
                ]
            ],
            "wrapper": {
                "width": "",
                "class": "",
                "id": ""
            },
            "return_value": "name",
            "allowed_roles": "",
            "field_type": "checkbox"
        }
    ],
    "location": [
        [
            {
                "param": "post_type",
                "operator": "==",
                "value": "inspection-reports"
            }
        ]
    ],
    "menu_order": 0,
    "position": "normal",
    "style": "default",
    "label_placement": "top",
    "instruction_placement": "label",
    "hide_on_screen": "",
    "active": 1,
    "description": "",
    "modified": 1455866163
}